\relax 
\providecommand\hyper@newdestlabel[2]{}
\providecommand\babel@aux[2]{}
\@nameuse{bbl@beforestart}
\catcode `"\active 
\catcode `-\active 
\providecommand\HyperFirstAtBeginDocument{\AtBeginDocument}
\HyperFirstAtBeginDocument{\ifx\hyper@anchor\@undefined
\global\let\oldcontentsline\contentsline
\gdef\contentsline#1#2#3#4{\oldcontentsline{#1}{#2}{#3}}
\global\let\oldnewlabel\newlabel
\gdef\newlabel#1#2{\newlabelxx{#1}#2}
\gdef\newlabelxx#1#2#3#4#5#6{\oldnewlabel{#1}{{#2}{#3}}}
\AtEndDocument{\ifx\hyper@anchor\@undefined
\let\contentsline\oldcontentsline
\let\newlabel\oldnewlabel
\fi}
\fi}
\global\let\hyper@last\relax 
\gdef\HyperFirstAtBeginDocument#1{#1}
\providecommand\HyField@AuxAddToFields[1]{}
\providecommand\HyField@AuxAddToCoFields[2]{}
\babel@aux{czech}{}
\@writefile{toc}{\contentsline {section}{\numberline {1}O dokumentu}{2}{section.1}\protected@file@percent }
\@writefile{toc}{\contentsline {section}{\numberline {2}Dobré zprávy}{2}{section.2}\protected@file@percent }
\@writefile{lof}{\contentsline {figure}{\numberline {1}{\ignorespaces Komunikace s API (\href  {https://httpie.io/}{httpie})\relax }}{2}{figure.caption.1}\protected@file@percent }
\@writefile{toc}{\contentsline {section}{\numberline {3}Odvedená práce}{3}{section.3}\protected@file@percent }
\@writefile{toc}{\contentsline {subsection}{\numberline {3.1}Online hosting}{3}{subsection.3.1}\protected@file@percent }
\@writefile{lof}{\contentsline {figure}{\numberline {2}{\ignorespaces Spuštěný herní server\relax }}{3}{figure.caption.2}\protected@file@percent }
\@writefile{toc}{\contentsline {subsection}{\numberline {3.2}Zobrazování na Simulátoru/Linkách}{3}{subsection.3.2}\protected@file@percent }
\@writefile{toc}{\contentsline {subsection}{\numberline {3.3}Generování mapy}{3}{subsection.3.3}\protected@file@percent }
\@writefile{lof}{\contentsline {figure}{\numberline {3}{\ignorespaces Mapa pro web\relax }}{3}{figure.caption.3}\protected@file@percent }
\@writefile{toc}{\contentsline {section}{\numberline {4}Sočasný stav}{4}{section.4}\protected@file@percent }
\@writefile{toc}{\contentsline {section}{\numberline {5}Ukázka}{4}{section.5}\protected@file@percent }
\@writefile{lof}{\contentsline {figure}{\numberline {4}{\ignorespaces Hra puštěná na simulátoru\relax }}{4}{figure.caption.4}\protected@file@percent }
\@writefile{toc}{\contentsline {section}{\numberline {6}Kód}{4}{section.6}\protected@file@percent }
\gdef \@abspage@last{5}
