\babel@toc {czech}{}\relax 
\contentsline {section}{\numberline {1}O dokumentu}{1}{section.1}%
\contentsline {section}{\numberline {2}Výběr minihry z analýzy}{2}{section.2}%
\contentsline {subsection}{\numberline {2.1}Popis minihry}{2}{subsection.2.1}%
\contentsline {section}{\numberline {3}Základní informace}{2}{section.3}%
\contentsline {subsection}{\numberline {3.1}Počítání score}{3}{subsection.3.1}%
\contentsline {section}{\numberline {4}Mobilní aplikace}{3}{section.4}%
\contentsline {subsection}{\numberline {4.1}Uživatelské rozhraní}{3}{subsection.4.1}%
\contentsline {subsubsection}{\numberline {4.1.1}Návod}{4}{subsubsection.4.1.1}%
\contentsline {subsubsection}{\numberline {4.1.2}Loading}{5}{subsubsection.4.1.2}%
\contentsline {subsubsection}{\numberline {4.1.3}Hra}{5}{subsubsection.4.1.3}%
\contentsline {subsubsection}{\numberline {4.1.4}Špatný signál}{5}{subsubsection.4.1.4}%
\contentsline {subsection}{\numberline {4.2}Komunikace se serverem}{5}{subsection.4.2}%
\contentsline {subsection}{\numberline {4.3}Počítání score}{5}{subsection.4.3}%
\contentsline {section}{\numberline {5}Serverová aplikace}{6}{section.5}%
\contentsline {subsection}{\numberline {5.1}Připojení do hry}{6}{subsection.5.1}%
\contentsline {subsection}{\numberline {5.2}Vygenerování hry}{7}{subsection.5.2}%
\contentsline {subsection}{\numberline {5.3}Vygenerování obrazu}{7}{subsection.5.3}%
\contentsline {subsection}{\numberline {5.4}Poslání obrazu na Linky}{7}{subsection.5.4}%
