\relax 
\providecommand\hyper@newdestlabel[2]{}
\providecommand\babel@aux[2]{}
\@nameuse{bbl@beforestart}
\catcode `"\active 
\catcode `-\active 
\providecommand\HyperFirstAtBeginDocument{\AtBeginDocument}
\HyperFirstAtBeginDocument{\ifx\hyper@anchor\@undefined
\global\let\oldcontentsline\contentsline
\gdef\contentsline#1#2#3#4{\oldcontentsline{#1}{#2}{#3}}
\global\let\oldnewlabel\newlabel
\gdef\newlabel#1#2{\newlabelxx{#1}#2}
\gdef\newlabelxx#1#2#3#4#5#6{\oldnewlabel{#1}{{#2}{#3}}}
\AtEndDocument{\ifx\hyper@anchor\@undefined
\let\contentsline\oldcontentsline
\let\newlabel\oldnewlabel
\fi}
\fi}
\global\let\hyper@last\relax 
\gdef\HyperFirstAtBeginDocument#1{#1}
\providecommand\HyField@AuxAddToFields[1]{}
\providecommand\HyField@AuxAddToCoFields[2]{}
\babel@aux{czech}{}
\@writefile{toc}{\contentsline {section}{\numberline {1}O dokumentu}{2}{section.1}\protected@file@percent }
\@writefile{toc}{\contentsline {section}{\numberline {2}Popis odvedené práce}{2}{section.2}\protected@file@percent }
\@writefile{toc}{\contentsline {subsection}{\numberline {2.1}Aplikace v Unity}{2}{subsection.2.1}\protected@file@percent }
\@writefile{lof}{\contentsline {figure}{\numberline {1}{\ignorespaces Piano ve 3D\relax }}{3}{figure.caption.1}\protected@file@percent }
\@writefile{lof}{\contentsline {figure}{\numberline {2}{\ignorespaces Piano ve 2D\relax }}{3}{figure.caption.2}\protected@file@percent }
\@writefile{lof}{\contentsline {figure}{\numberline {3}{\ignorespaces Menu\relax }}{4}{figure.caption.3}\protected@file@percent }
\@writefile{lof}{\contentsline {figure}{\numberline {4}{\ignorespaces Lobby\relax }}{4}{figure.caption.4}\protected@file@percent }
\@writefile{toc}{\contentsline {subsection}{\numberline {2.2}PHP Server}{4}{subsection.2.2}\protected@file@percent }
\@writefile{toc}{\contentsline {subsection}{\numberline {2.3}Databáze}{4}{subsection.2.3}\protected@file@percent }
\@writefile{toc}{\contentsline {section}{\numberline {3}Odchylky od dokumentace}{4}{section.3}\protected@file@percent }
\@writefile{toc}{\contentsline {section}{\numberline {4}Odchylky od původního plánu}{5}{section.4}\protected@file@percent }
\gdef \@abspage@last{6}
