\babel@toc {czech}{}\relax 
\contentsline {section}{\numberline {1}O dokumentu}{2}{section.1}%
\contentsline {section}{\numberline {2}Popis odvedené práce}{2}{section.2}%
\contentsline {section}{\numberline {3}Slepé uličky}{2}{section.3}%
\contentsline {subsection}{\numberline {3.1}Server}{2}{subsection.3.1}%
\contentsline {subsection}{\numberline {3.2}Mobilní aplikace}{3}{subsection.3.2}%
\contentsline {section}{\numberline {4}Současná podoba}{4}{section.4}%
\contentsline {subsection}{\numberline {4.1}Screenshoty}{4}{subsection.4.1}%
\contentsline {section}{\numberline {5}Navazující práce}{6}{section.5}%
\contentsline {section}{\numberline {6}Kód}{6}{section.6}%
