\BOOKMARK [1][-]{section.1}{\376\377\000O\000\040\000d\000o\000k\000u\000m\000e\000n\000t\000u}{}% 1
\BOOKMARK [1][-]{section.2}{\376\377\000P\000o\000p\000i\000s\000\040\000o\000d\000v\000e\000d\000e\000n\000\351\000\040\000p\000r\000\341\000c\000e}{}% 2
\BOOKMARK [1][-]{section.3}{\376\377\000S\000l\000e\000p\000\351\000\040\000u\000l\000i\001\015\000k\000y}{}% 3
\BOOKMARK [2][-]{subsection.3.1}{\376\377\000S\000e\000r\000v\000e\000r}{section.3}% 4
\BOOKMARK [2][-]{subsection.3.2}{\376\377\000M\000o\000b\000i\000l\000n\000\355\000\040\000a\000p\000l\000i\000k\000a\000c\000e}{section.3}% 5
\BOOKMARK [1][-]{section.4}{\376\377\000S\000o\000u\001\015\000a\000s\000n\000\341\000\040\000p\000o\000d\000o\000b\000a}{}% 6
\BOOKMARK [2][-]{subsection.4.1}{\376\377\000S\000c\000r\000e\000e\000n\000s\000h\000o\000t\000y}{section.4}% 7
\BOOKMARK [1][-]{section.5}{\376\377\000N\000a\000v\000a\000z\000u\000j\000\355\000c\000\355\000\040\000p\000r\000\341\000c\000e}{}% 8
\BOOKMARK [1][-]{section.6}{\376\377\000K\000\363\000d}{}% 9
