\relax 
\providecommand\hyper@newdestlabel[2]{}
\providecommand\babel@aux[2]{}
\@nameuse{bbl@beforestart}
\catcode `"\active 
\catcode `-\active 
\providecommand\HyperFirstAtBeginDocument{\AtBeginDocument}
\HyperFirstAtBeginDocument{\ifx\hyper@anchor\@undefined
\global\let\oldcontentsline\contentsline
\gdef\contentsline#1#2#3#4{\oldcontentsline{#1}{#2}{#3}}
\global\let\oldnewlabel\newlabel
\gdef\newlabel#1#2{\newlabelxx{#1}#2}
\gdef\newlabelxx#1#2#3#4#5#6{\oldnewlabel{#1}{{#2}{#3}}}
\AtEndDocument{\ifx\hyper@anchor\@undefined
\let\contentsline\oldcontentsline
\let\newlabel\oldnewlabel
\fi}
\fi}
\global\let\hyper@last\relax 
\gdef\HyperFirstAtBeginDocument#1{#1}
\providecommand\HyField@AuxAddToFields[1]{}
\providecommand\HyField@AuxAddToCoFields[2]{}
\babel@aux{czech}{}
\@writefile{toc}{\contentsline {section}{\numberline {1}O dokumentu}{2}{section.1}\protected@file@percent }
\@writefile{toc}{\contentsline {section}{\numberline {2}Výběr minihry z analýzy}{3}{section.2}\protected@file@percent }
\@writefile{toc}{\contentsline {section}{\numberline {3}Popis minihry Piano}{3}{section.3}\protected@file@percent }
\@writefile{lof}{\contentsline {figure}{\numberline {1}{\ignorespaces Spuštěná hra na Linkách\relax }}{4}{figure.caption.1}\protected@file@percent }
\providecommand*\caption@xref[2]{\@setref\relax\@undefined{#1}}
\newlabel{fig:ilustraceLinky}{{1}{4}{Spuštěná hra na Linkách\relax }{figure.caption.1}{}}
\@writefile{lof}{\contentsline {figure}{\numberline {2}{\ignorespaces Spuštěná hra v telefonu\relax }}{4}{figure.caption.2}\protected@file@percent }
\newlabel{fig:ilustraceTelefon}{{2}{4}{Spuštěná hra v telefonu\relax }{figure.caption.2}{}}
\@writefile{toc}{\contentsline {subsection}{\numberline {3.1}Zodpovězení nejasností}{4}{subsection.3.1}\protected@file@percent }
\@writefile{toc}{\contentsline {subsection}{\numberline {3.2}Časová náročnost}{5}{subsection.3.2}\protected@file@percent }
\@writefile{toc}{\contentsline {section}{\numberline {4}Architektura hry}{5}{section.4}\protected@file@percent }
\@writefile{toc}{\contentsline {subsection}{\numberline {4.1}Počítání score}{5}{subsection.4.1}\protected@file@percent }
\@writefile{toc}{\contentsline {section}{\numberline {5}Mobilní aplikace}{5}{section.5}\protected@file@percent }
\@writefile{toc}{\contentsline {subsection}{\numberline {5.1}Uživatelské rozhraní}{6}{subsection.5.1}\protected@file@percent }
\@writefile{lof}{\contentsline {figure}{\numberline {3}{\ignorespaces Nákres uživatelského rozhraní\relax }}{6}{figure.caption.3}\protected@file@percent }
\newlabel{fig:ilustraceLinky}{{3}{6}{Nákres uživatelského rozhraní\relax }{figure.caption.3}{}}
\@writefile{toc}{\contentsline {subsubsection}{\numberline {5.1.1}Menu}{7}{subsubsection.5.1.1}\protected@file@percent }
\@writefile{toc}{\contentsline {subsubsection}{\numberline {5.1.2}Tutorial}{7}{subsubsection.5.1.2}\protected@file@percent }
\@writefile{toc}{\contentsline {subsubsection}{\numberline {5.1.3}Lobby}{7}{subsubsection.5.1.3}\protected@file@percent }
\@writefile{toc}{\contentsline {subsubsection}{\numberline {5.1.4}Game}{7}{subsubsection.5.1.4}\protected@file@percent }
\@writefile{toc}{\contentsline {subsubsection}{\numberline {5.1.5}Score}{7}{subsubsection.5.1.5}\protected@file@percent }
\@writefile{toc}{\contentsline {subsubsection}{\numberline {5.1.6}PopUp}{7}{subsubsection.5.1.6}\protected@file@percent }
\@writefile{toc}{\contentsline {subsection}{\numberline {5.2}Počítání score v aplikaci}{7}{subsection.5.2}\protected@file@percent }
\@writefile{toc}{\contentsline {subsection}{\numberline {5.3}Komunikace se serverem}{7}{subsection.5.3}\protected@file@percent }
\@writefile{toc}{\contentsline {section}{\numberline {6}Serverová aplikace}{8}{section.6}\protected@file@percent }
\@writefile{toc}{\contentsline {subsection}{\numberline {6.1}Připojení do hry}{8}{subsection.6.1}\protected@file@percent }
\newlabel{sec:pripojeniDoHry}{{6.1}{8}{Připojení do hry}{subsection.6.1}{}}
\@writefile{toc}{\contentsline {subsection}{\numberline {6.2}Vygenerování hry}{8}{subsection.6.2}\protected@file@percent }
\newlabel{sec:vygenerovaniHry}{{6.2}{8}{Vygenerování hry}{subsection.6.2}{}}
\@writefile{toc}{\contentsline {subsection}{\numberline {6.3}Vygenerování a poslání obrazu}{9}{subsection.6.3}\protected@file@percent }
\gdef \@abspage@last{10}
