This is BibTeX, Version 0.99d
Capacity: max_strings=200000, hash_size=200000, hash_prime=170003
The top-level auxiliary file: ZaverecnaZprava.aux
Reallocating 'name_of_file' (item size: 1) to 9 items.
The style file: biblatex.bst
Reallocating 'name_of_file' (item size: 1) to 20 items.
Reallocating 'name_of_file' (item size: 1) to 12 items.
Reallocating 'glb_str_end' (item size: 4) to 20 items.
Reallocating 'glb_str_ptr' (item size: 4) to 20 items.
Reallocating 'global_strs' (item size: 1) to 4000000 items.
Reallocating 'singl_function' (item size: 4) to 100 items.
Reallocating 'singl_function' (item size: 4) to 100 items.
Reallocating 'singl_function' (item size: 4) to 100 items.
Reallocating 'wiz_functions' (item size: 4) to 6000 items.
Reallocating 'singl_function' (item size: 4) to 100 items.
Reallocating 'singl_function' (item size: 4) to 100 items.
Reallocating 'singl_function' (item size: 4) to 100 items.
Reallocating 'singl_function' (item size: 4) to 100 items.
Reallocating 'singl_function' (item size: 4) to 100 items.
Reallocating 'singl_function' (item size: 4) to 100 items.
Reallocating 'singl_function' (item size: 4) to 100 items.
Reallocating 'singl_function' (item size: 4) to 100 items.
Database file #1: ZaverecnaZprava-blx.bib
Database file #2: ./citations.bib
Biblatex version: 3.16
Reallocating 'wiz_functions' (item size: 4) to 9000 items.
Reallocating 'singl_function' (item size: 4) to 100 items.
You've used 2 entries,
            6393 wiz_defined-function locations,
            1206 strings with 9039 characters,
and the built_in function-call counts, 4624 in all, are:
= -- 129
> -- 338
< -- 31
+ -- 291
- -- 263
* -- 141
:= -- 671
add.period$ -- 0
call.type$ -- 2
change.case$ -- 4
chr.to.int$ -- 66
cite$ -- 2
duplicate$ -- 315
empty$ -- 418
format.name$ -- 0
if$ -- 803
int.to.chr$ -- 0
int.to.str$ -- 1
missing$ -- 0
newline$ -- 34
num.names$ -- 0
pop$ -- 366
preamble$ -- 1
purify$ -- 3
quote$ -- 0
skip$ -- 164
stack$ -- 0
substring$ -- 247
swap$ -- 114
text.length$ -- 44
text.prefix$ -- 1
top$ -- 1
type$ -- 56
warning$ -- 0
while$ -- 85
width$ -- 0
write$ -- 33
